{
  "cameras" : 1,
  "output_name" : "./rubbish/output",
  "format" : ".jpg",
  "output_json" : "./rubbish/answer",
  "options" : "options",
  "input" : "someimg",
  "input_dir" : "./imgrub",
  "delay" : 0.03
}