{
  "options" : [
    {
      "determined_true" : 0.5,
      "determined_false" : 0.2,
      "name" : "smoke",
      "should_be" : true
    },
    {
      "determined_true" : 0.8,
      "determined_false" : 0.7,
      "name" : "fire",
      "should_be" :  false
    }
  ]
}
